[
    {
        "id": 1,
        "name": "steam",
        "win": "steam.exe",
        "genre": "",
        "dateAdded": ""
    },
    {
        "id": 2,
        "name": "Battle.net",
        "genre": "battle.net",
        "win": "battle.net",
        "dateAdded": ""
    }
]